2019-10-10, 10:00-11:00 Количество ошибок: 5
2019-10-10, 11:00-12:00 Количество ошибок: 2
2019-10-10, 13:00-14:00 Количество ошибок: 1
2019-10-10, 17:00-18:00 Количество ошибок: 1
2019-10-10, 18:00-19:00 Количество ошибок: 2
2019-10-11, 10:00-11:00 Количество ошибок: 1
2019-10-12, 10:00-11:00 Количество ошибок: 1
2019-10-12, 11:00-12:00 Количество ошибок: 3
2019-10-13, 11:00-12:00 Количество ошибок: 2
2019-10-14, 17:00-18:00 Количество ошибок: 4
2019-10-17, 18:00-19:00 Количество ошибок: 1
